The composition of community in a 8x8 plate (64 SynComs) — one_plate • cailab.utils
…
sep
separator

return_array
return an array if TRUE

    Value

    a tibble or an array

    Examples

  one_plate(plate_id="",base_strain="",add_strain=LETTERS[1:6])
#> # A tibble: 64 × 2
#>    combination_id combination
#>    <chr>          <chr>      
#>  1 A1             A/B/C/D/E/F
#>  2 B1             A/B/C/D/E  
#>  3 C1             A/B/C/D/F  
#>  4 D1             A/B/C/D    
#>  5 E1             A/B/C/E/F  
#>  6 F1             A/B/C/E    
#>  7 G1             A/B/C/F    
#>  8 H1             A/B/C      
#>  9 A2             A/B/D/E/F  
#> 10 B2             A/B/D/E    
#> # ℹ 54 more rows
…
